<?xml version="1.0" encoding="UTF-8"?>
<svg width="4px" height="3px" viewBox="0 0 4 3" version="1.1" xmlns="http://www.w3.org/2000/svg" xmlns:xlink="http://www.w3.org/1999/xlink">
    <!-- Generator: Sketch 49.3 (51167) - http://www.bohemiancoding.com/sketch -->
    <title>4 x 3 черный</title>
    <desc>Created with Sketch.</desc>
    <defs></defs>
    <g id="Бета" stroke="none" stroke-width="1" fill="none" fill-rule="evenodd">
        <rect id="4-x-3-черный" fill="#000000" x="0" y="0" width="4" height="3"></rect>
    </g>
</svg>